{
    "code": 200,
    "msg": "请求成功",
    "data": [
      {
        "id": 1,
        "name": "企业咨询服务",
        "amount": 2302,
        "remark": "第一次合作，加油",
        "direction":0,
        "time": "2016.04.20 15:16:01"
      },
      {
        "id": 2,
        "name": "游泳",
        "amount": 2302,
        "remark": "第一次合作，加油",
        "direction":1,
        "time": "2016.04.20 15:16:01"
      },{
        "id": 1,
        "name": "企业咨询服务",
        "amount": 2302,
        "remark": "第一次合作，加油",
        "direction":0,
        "time": "2016.04.20 15:16:01"
      },
      {
        "id": 2,
        "name": "游泳",
        "amount": 2302,
        "remark": "第一次合作，加油",
        "direction":1,
        "time": "2016.04.20 15:16:01"
      },{
        "id": 1,
        "name": "企业咨询服务",
        "amount": 2302,
        "remark": "第一次合作，加油",
        "direction":0,
        "time": "2016.04.20 15:16:01"
      },
      {
        "id": 2,
        "name": "游泳",
        "amount": 2302,
        "remark": "第一次合作，加油",
        "direction":1,
        "time": "2016.04.20 15:16:01"
      },{
        "id": 1,
        "name": "企业咨询服务",
        "amount": 2302,
        "remark": "第一次合作，加油",
        "direction":0,
        "time": "2016.04.20 15:16:01"
      },
      {
        "id": 2,
        "name": "游泳",
        "amount": 2302,
        "remark": "第一次合作，加油",
        "direction":1,
        "time": "2016.04.20 15:16:01"
      },{
        "id": 1,
        "name": "企业咨询服务",
        "amount": 2302,
        "remark": "第一次合作，加油",
        "direction":0,
        "time": "2016.04.20 15:16:01"
      },
      {
        "id": 2,
        "name": "游泳",
        "amount": 2302,
        "remark": "第一次合作，加油",
        "direction":1,
        "time": "2016.04.20 15:16:01"
      }
    ],
    "pageSize": 10,
    "totalResults": 20,
    "currentPage": 1,
    "totalPage": 2
  }
  